dplyr
…
---

## Select

- Seleccionar variables (columnas) de un data frame.

```r
select(mpg, model, displ, cyl)
```

```
## # A tibble: 234 x 3
##    model      displ   cyl
##    <chr>      <dbl> <int>
##  1 a4           1.8     4
##  2 a4           1.8     4
##  3 a4           2       4
##  4 a4           2       4
##  5 a4           2.8     6
##  6 a4           2.8     6
##  7 a4           3.1     6
##  8 a4 quattro   1.8     4
##  9 a4 quattro   1.8     4
## 10 a4 quattro   2       4
## # … with 224 more rows
```

---
## Select (cont.)
- Con un `-` se ignoran variables.

```r
select(mpg, -manufacturer)
```

```
## # A tibble: 234 x 10
##    model      displ  year   cyl trans      drv     cty   hwy fl    class  
##    <chr>      <dbl> <int> <int> <chr>      <chr> <int> <int> <chr> <chr>  
##  1 a4           1.8  1999     4 auto(l5)   f        18    29 p     compact
##  2 a4           1.8  1999     4 manual(m5) f        21    29 p     compact
##  3 a4           2    2008     4 manual(m6) f        20    31 p     compact
##  4 a4           2    2008     4 auto(av)   f        21    30 p     compact
##  5 a4           2.8  1999     6 auto(l5)   f        16    26 p     compact
##  6 a4           2.8  1999     6 manual(m5) f        18    26 p     compact
##  7 a4           3.1  2008     6 auto(av)   f        18    27 p     compact
##  8 a4 quattro   1.8  1999     4 manual(m5) 4        18    26 p     compact
##  9 a4 quattro   1.8  1999     4 auto(l5)   4        16    25 p     compact
## 10 a4 quattro   2    2008     4 manual(m6) 4        20    28 p     compact
## # … with 224 more rows
```

---

## Select (cont.)

- Puesto que las variables están ordenadas, se puede seleccionar un rango con `:`

```r
select(mpg, model:trans)
```

```
## # A tibble: 234 x 5
##    model      displ  year   cyl trans     
##    <chr>      <dbl> <int> <int> <chr>     
##  1 a4           1.8  1999     4 auto(l5)  
##  2 a4           1.8  1999     4 manual(m5)
##  3 a4           2    2008     4 manual(m6)
##  4 a4           2    2008     4 auto(av)  
##  5 a4           2.8  1999     6 auto(l5)  
##  6 a4           2.8  1999     6 manual(m5)
##  7 a4           3.1  2008     6 auto(av)  
##  8 a4 quattro   1.8  1999     4 manual(m5)
##  9 a4 quattro   1.8  1999     4 auto(l5)  
## 10 a4 quattro   2    2008     4 manual(m6)
## # … with 224 more rows
```
…
---

## arrange

- Ordena las filas de un data frame por el valor de una o varias columnas.
- Por defecto ordena de menor a mayor (orden ascendente), pero es posible utilizar la función `desc` sobre el nombre de la variable para ordenar descendentemente.

```r
arrange(mpg, desc(year), cyl)
```

```
## # A tibble: 234 x 11
##    manufacturer model displ  year   cyl trans drv     cty   hwy fl    class
##    <chr>        <chr> <dbl> <int> <int> <chr> <chr> <int> <int> <chr> <chr>
##  1 audi         a4      2    2008     4 manu… f        20    31 p     comp…
##  2 audi         a4      2    2008     4 auto… f        21    30 p     comp…
##  3 audi         a4 q…   2    2008     4 manu… 4        20    28 p     comp…
##  4 audi         a4 q…   2    2008     4 auto… 4        19    27 p     comp…
##  5 chevrolet    mali…   2.4  2008     4 auto… f        22    30 r     mids…
##  6 honda        civic   1.8  2008     4 manu… f        26    34 r     subc…
##  7 honda        civic   1.8  2008     4 auto… f        25    36 r     subc…
##  8 honda        civic   1.8  2008     4 auto… f        24    36 c     subc…
##  9 honda        civic   2    2008     4 manu… f        21    29 p     subc…
## 10 hyundai      sona…   2.4  2008     4 auto… f        21    30 r     mids…
## # … with 224 more rows
```
…
